\BOOKMARK [0][-]{titulo.0}{P\341gina de T\355tulo}{}% 1
\BOOKMARK [0][-]{dedicatoria.0}{Dedicatoria}{}% 2
\BOOKMARK [0][-]{chapter*.1}{Agradecimientos}{}% 3
\BOOKMARK [0][-]{chapter*.2}{Resumen}{}% 4
\BOOKMARK [0][-]{indices.0}{\315ndices}{}% 5
\BOOKMARK [1][-]{tabla de contenidos.1}{Tabla de contenidos}{indices.0}% 6
\BOOKMARK [1][-]{indice de figuras.1}{\315ndice de figuras}{indices.0}% 7
\BOOKMARK [1][-]{indice de tablas.1}{\315ndice de tablas}{indices.0}% 8
\BOOKMARK [0][-]{chapter.1}{Cap\355tulo I}{}% 9
\BOOKMARK [1][-]{section.1.1}{Introducci\363n}{chapter.1}% 10
\BOOKMARK [1][-]{section.1.1}{Notas bibliogr\341ficas}{chapter.1}% 11
\BOOKMARK [1][-]{section.1.1}{En el pr\363ximo cap\355tulo}{chapter.1}% 12
\BOOKMARK [0][-]{chapter.2}{Cap\355tulo II}{}% 13
\BOOKMARK [1][-]{section.2.1}{Introducci\363n}{chapter.2}% 14
\BOOKMARK [1][-]{section.2.1}{Notas bibliogr\341ficas}{chapter.2}% 15
\BOOKMARK [1][-]{section.2.1}{En el pr\363ximo cap\355tulo}{chapter.2}% 16
\BOOKMARK [0][-]{chapter.3}{PREGUNTAS DE INVESTIGACI\323N}{}% 17
\BOOKMARK [1][-]{section.3.1}{Introducci\363n}{chapter.3}% 18
\BOOKMARK [1][-]{section.3.1}{Notas bibliogr\341ficas}{chapter.3}% 19
\BOOKMARK [1][-]{section.3.1}{En el pr\363ximo cap\355tulo}{chapter.3}% 20
\BOOKMARK [0][-]{chapter.4}{METODOLOG\315A DE INVESTIGACI\323N}{}% 21
\BOOKMARK [1][-]{section.4.1}{Descripci\363n del experimento base}{chapter.4}% 22
\BOOKMARK [2][-]{subsection.4.1.1}{Factores y sus niveles}{section.4.1}% 23
\BOOKMARK [2][-]{subsection.4.1.2}{Variables respuesta y m\351tricas}{section.4.1}% 24
\BOOKMARK [2][-]{subsection.4.1.3}{Hip\363tesis Experimentales}{section.4.1}% 25
\BOOKMARK [2][-]{subsection.4.1.4}{Covariables}{section.4.1}% 26
\BOOKMARK [2][-]{subsection.4.1.5}{Objetos Experimentales.}{section.4.1}% 27
\BOOKMARK [2][-]{subsection.4.1.6}{Dise\361o Experimental }{section.4.1}% 28
\BOOKMARK [2][-]{subsection.4.1.7}{Selecci\363n de sujetos}{section.4.1}% 29
\BOOKMARK [2][-]{subsection.4.1.8}{Asignaci\363n de los Sujetos a Tratamientos}{section.4.1}% 30
\BOOKMARK [2][-]{subsection.4.1.9}{Objetos Experimentales}{section.4.1}% 31
\BOOKMARK [2][-]{subsection.4.1.10}{Protocolo Experimental}{section.4.1}% 32
\BOOKMARK [2][-]{subsection.4.1.11}{Instrumentaci\363n}{section.4.1}% 33
\BOOKMARK [2][-]{subsection.4.1.12}{Protocolo y procedimiento de recolecci\363n de datos }{section.4.1}% 34
\BOOKMARK [2][-]{subsection.4.1.13}{Procedimiento de medici\363n }{section.4.1}% 35
\BOOKMARK [2][-]{subsection.4.1.14}{An\341lisis de Datos}{section.4.1}% 36
\BOOKMARK [1][-]{section.4.2}{Informaci\363n Sobre la Replicaci\363n}{chapter.4}% 37
\BOOKMARK [2][-]{subsection.4.2.1}{Motivaci\363n para la realizaci\363n de la replicaci\363n}{section.4.2}% 38
\BOOKMARK [2][-]{subsection.4.2.2}{Nivel de interacci\363n con los experimentadores originales}{section.4.2}% 39
\BOOKMARK [2][-]{subsection.4.2.3}{Cambios Respecto al Experimento Original}{section.4.2}% 40
\BOOKMARK [1][-]{subsubsection.4.2.3.3}{Notas bibliogr\341ficas}{chapter.4}% 41
\BOOKMARK [1][-]{subsubsection.4.2.3.3}{En el pr\363ximo cap\355tulo}{chapter.4}% 42
\BOOKMARK [-1][-]{part.1}{I Ap\351ndices}{}% 43
\BOOKMARK [0][-]{appendix.Alph1}{As\355 se hizo...}{part.1}% 44
\BOOKMARK [1][-]{section.Alph1.1}{Introducci\363n}{appendix.Alph1}% 45
\BOOKMARK [-1][-]{appendix*.10}{Bibliograf\355a}{}% 46
\BOOKMARK [-1][-]{fin.-1}{Fin}{}% 47
