\relax 
\bibstyle{TeXiS/TeXiS}
\bibdata{nuestros,latex,otros}
\bibcite{ldesc2e}{{1}{1998}{{Bautista et\ al.}}{{Bautista, Oetiker, Partl, Hyna y Schlegl}}}
\@writefile{toc}{\contentsline {part}{Bibliograf\IeC {\'\i }a}{27}{appendix*.10}}
\newlabel{bibliografia}{{A.1}{27}{\bibname \@mkboth {\MakeUppercase {\bibname }}{\MakeUppercase {\bibname }}\relax }{appendix*.10}{}}
\@setckpt{Cascaras/bibliografia}{
\setcounter{page}{28}
\setcounter{equation}{0}
\setcounter{enumi}{3}
\setcounter{enumii}{0}
\setcounter{enumiii}{0}
\setcounter{enumiv}{0}
\setcounter{footnote}{0}
\setcounter{mpfootnote}{0}
\setcounter{part}{1}
\setcounter{chapter}{1}
\setcounter{section}{1}
\setcounter{subsection}{0}
\setcounter{subsubsection}{3}
\setcounter{paragraph}{0}
\setcounter{subparagraph}{0}
\setcounter{figure}{0}
\setcounter{table}{0}
\setcounter{NAT@ctr}{1}
\setcounter{Item}{7}
\setcounter{Hfootnote}{0}
\setcounter{bookmark@seq@number}{46}
\setcounter{ContinuedFloat}{0}
\setcounter{KVtest}{0}
\setcounter{subfigure}{0}
\setcounter{subfigure@save}{0}
\setcounter{lofdepth}{1}
\setcounter{subtable}{0}
\setcounter{subtable@save}{0}
\setcounter{lotdepth}{1}
\setcounter{lstnumber}{1}
\setcounter{section@level}{0}
\setcounter{lstlisting}{0}
}
